{
  "assigneesFromCodeOwners": true,
  "dependencyDashboardAutoclose": true,
  "dependencyDashboardOSVVulnerabilitySummary": "all",
  "enabledManagers": [
    "dockerfile",
    "gitlabci",
    "gitlabci-include",
    "custom.regex"
  ],
  "extends": [
    ":enableVulnerabilityAlerts",
    "config:recommended"
  ],
  "internalChecksFilter": "strict",
  "labels": [
    "dependencies"
  ],
  "minimumReleaseAge": "3 days",
  "osvVulnerabilityAlerts": true,
  "packageRules": [
    {
      "matchCategories": [
        "docker"
      ],
      "pinDigests": true
    },
    {
      "addLabels": [
        "container",
        "docker"
      ],
      "matchDatasources": [
        "docker"
      ],
      "automerge": true
    },
    {
      "matchPackageNames": [
        "gitlabci",
        "gitlabci-include"
      ],
      "addLabels": [
        "gitlab-ci"
      ]
    },
    {
      "matchDatasources": [
        "docker"
      ],
      "matchUpdateTypes": [
        "major"
      ],
      "enabled": false,
      "matchDepNames": [
        "//.*fedora.*//"
      ]
    },
    {
      "matchDatasources": [
        "docker"
      ],
      "pinDigests": false,
      "matchDepNames": [
        "//.*fedora.*//"
      ]
    }
  ],
  "customManagers": [
    {
      "customType": "regex",
      "description": "Update renovate template references",
      "fileMatch": [
        "^\\.gitlab-ci\\.yml$"
      ],
      "matchStrings": [
        "\\s+project: 'to-be-continuous\\/renovate'\\s+ref: (?<currentValue>[0-9.]+)\\s+"
      ],
      "datasourceTemplate": "gitlab-releases",
      "depNameTemplate": "to-be-continuous/renovate",
      "packageNameTemplate": "to-be-continuous/renovate",
      "versioningTemplate": "semver"
    },
    {
      "customType": "regex",
      "description": "Update docker template references",
      "fileMatch": [
        "^templates/build-container\\.gitlab-ci\\.ya?ml$"
      ],
      "matchStrings": [
        "\\s+- remote: 'https://gitlab.com/to-be-continuous/docker/-/raw/(?<currentValue>[0-9.]+)/templates/gitlab-ci-docker.yml'\\s+"
      ],
      "datasourceTemplate": "gitlab-releases",
      "depNameTemplate": "to-be-continuous/docker",
      "packageNameTemplate": "to-be-continuous/docker",
      "versioningTemplate": "semver"
    },
    {
      "customType": "regex",
      "description": "Update skopeo version",
      "fileMatch": [
        "^.*Dockerfile$"
      ],
      "matchStrings": [
        "ARG\\s+SKOPEO_VERSION=\"(?<currentValue>[0-9.]+)\""
      ],
      "datasourceTemplate": "github-tags",
      "depNameTemplate": "containers/skopeo",
      "versioningTemplate": "semver"
    },
    {
      "customType": "regex",
      "description": "Update jq version",
      "fileMatch": [
        "^.*Dockerfile$"
      ],
      "matchStrings": [
        "ARG\\s+JQ_VERSION=\"(?<currentValue>[0-9.]+)\""
      ],
      "datasourceTemplate": "github-tags",
      "depNameTemplate": "jqlang/jq",
      "versioningTemplate": "semver",
      "extractVersionTemplate": "^jq-(?<version>.+)$"
    },
    {
      "customType": "regex",
      "description": "Update git version",
      "fileMatch": [
        "^.*Dockerfile$"
      ],
      "matchStrings": [
        "ARG\\s+GIT_VERSION=\"(?<currentValue>[0-9.]+)\""
      ],
      "datasourceTemplate": "github-tags",
      "depNameTemplate": "git/git",
      "versioningTemplate": "semver"
    },
    {
      "customType": "regex",
      "description": "Update aws cli version",
      "fileMatch": [
        "^.*Dockerfile$"
      ],
      "matchStrings": [
        "ARG\\s+AWS_CLI_VERSION=\"(?<currentValue>[0-9.]+)\""
      ],
      "datasourceTemplate": "github-tags",
      "depNameTemplate": "aws/aws-cli",
      "versioningTemplate": "semver"
    }
  ],
  "timezone": "Europe/Berlin",
  "gitlabci": {
    "fileMatch": [
      ".*\\.gitlab-ci\\.ya?ml$",
      "^templates/.*\\.gitlab-ci\\.ya?ml$"
    ]
  },
  "gitlabci-include": {
    "fileMatch": [
      ".*\\.gitlab-ci\\.ya?ml$",
      "^templates/.*\\.gitlab-ci\\.ya?ml$"
    ]
  }
}
